lab02/add_full/simulation/qsim/add_full.msim.vcd
$comment
	File created using the following command:
		vcd file add_full.msim.vcd -direction
$end
$date
	Wed Feb 26 10:32:31 2025
$end
$version
	ModelSim Version 2020.1
$end
$timescale
	1ps
$end

$scope module add_full_vlg_vec_tst $end
$var reg 1 ! a $end
$var reg 1 " b $end
$var reg 1 # cin $end
$var wire 1 $ cout $end
$var wire 1 % sum $end

$scope module i1 $end
$var wire 1 & gnd $end
$var wire 1 ' vcc $end
$var wire 1 ( unknown $end
$var tri1 1 ) devclrn $end
$var tri1 1 * devpor $end
$var tri1 1 + devoe $end
$var wire 1 , ~QUARTUS_CREATED_GND~I_combout $end
$var wire 1 - ~QUARTUS_CREATED_UNVM~~busy $end
$var wire 1 . ~QUARTUS_CREATED_ADC1~~eoc $end
$var wire 1 / ~QUARTUS_CREATED_ADC2~~eoc $end
$var wire 1 0 sum~output_o $end
$var wire 1 1 cout~output_o $end
$var wire 1 2 cin~input_o $end
$var wire 1 3 b~input_o $end
$var wire 1 4 a~input_o $end
$var wire 1 5 inst|inst2~0_combout $end
$var wire 1 6 inst2~0_combout $end
$upscope $end
$upscope $end
$enddefinitions $end
#0
$dumpvars
0!
0"
0#
0$
0%
0&
1'
x(
1)
1*
1+
0,
z-
z.
z/
00
01
02
03
04
05
06
$end
#40000
1!
14
15
10
1%
#80000
1"
0!
04
13
#120000
1!
14
16
05
00
11
1$
0%
#160000
1#
0"
0!
04
03
12
06
15
10
01
0$
1%
#200000
1!
14
16
05
00
11
1$
0%
#240000
1"
0!
04
13
#280000
1!
14
15
10
1%
#320000
0#
0"
0!
04
03
02
06
05
00
01
0$
0%
